{
   "name":"DocumentDBSinkConnector",
   "config":{
      "connector.class":"com.mongodb.kafka.connect.MongoSinkConnector",
      "connection.uri":"mongodb://localhost:27018/?ssl=true&replicaSet=rs0&readPreference=secondaryPreferred&retryWrites=false",
      "database":"omnihuborders",
      "username": "${file:/opt/target-system1-conf.properties:usr}",
      "password": "${file:/opt/target-system1-conf.properties:pwd}",
      "collection":"orders",
      "topics":"omnihuborders.omnihub.master.order_data_adidas_odm_format",
      "tasks.max":"10",
	  "max.num.retries" : "3",
      "key.converter":"org.apache.kafka.connect.storage.StringConverter",
      "value.converter":"org.apache.kafka.connect.json.JsonConverter",
      "value.converter.schemas.enable":"false",
	  "writemodel.strategy":"com.mongodb.kafka.connect.sink.writemodel.strategy.UpdateOneTimestampsStrategy",
	  "errors.tolerance":"all",
	  "errors.log.enable":"true",
	  "errors.deadletterqueue.topic.name":"omnihuborders.omnihub.master.order_data_adidas.deadletterqueue",
	  "errors.deadletterqueue.context.headers.enable":"true"
   }
}
